[gd_scene load_steps=2 format=2]

[ext_resource path="res://addons/neural_network/Editor/Interface.gd" type="Script" id=1]

[node name="Interface" type="Control"]
anchor_right = 1.0
anchor_bottom = 1.0
rect_min_size = Vector2( 250, 250 )
script = ExtResource( 1 )
__meta__ = {
"_edit_lock_": true
}

[node name="NeuralNetworkList" type="ItemList" parent="."]
anchor_right = 0.3125
anchor_bottom = 1.0
icon_scale = 2.0
__meta__ = {
"_edit_group_": true,
"_edit_lock_": true,
"_edit_use_anchors_": true
}

[node name="View" type="Panel" parent="."]
anchor_left = 0.32
anchor_right = 0.992
anchor_bottom = 1.0
margin_left = 0.319977
margin_right = 0.191956
__meta__ = {
"_edit_group_": true,
"_edit_lock_": true
}

[node name="ScrollContainer" type="ScrollContainer" parent="View"]
anchor_right = 1.0
anchor_bottom = 1.0
scroll_vertical_enabled = false
__meta__ = {
"_edit_group_": true,
"_edit_lock_": true
}

[node name="AddLayers" type="HBoxContainer" parent="View/ScrollContainer"]
margin_bottom = 600.0
size_flags_vertical = 3
custom_constants/separation = 7
__meta__ = {
"_edit_group_": true,
"_edit_lock_": true
}

[node name="Timer" type="Timer" parent="."]
wait_time = 0.5
